Equações Estruturais
…
No caso inverso, quando o ítem causa o constructo eles são chamados de formativos

Para aplicar o método das equações estruturais, as escalas nas quais os ítens serão medidos deverão sempre ser diretas, isto é, quanto maior o valor dado na escala, maior é a influência positiva do ítem no constructo e vice versa.

A escala típica utilizada para medir um ítem é a chamada Escala Likert. No exemplo deste exercício, os ítens X1 a X7 foram medidos em uma escala Likert de 1 até 7.

Base de dados

A base de dados pode ser vista a seguir. O arquivo refri.csv deverá estar disponível no diretório de trabalho do R/RStudio

refri <- read.csv2("https://raw.githubusercontent.com/gustavomirapalheta/classes_datasets/master/refri.csv"); 
refri <- dplyr::as_tibble(refri); refri

## # A tibble: 48 x 9
##    MARCA  Cod_respondente    X1    X2    X3    X4    X5    X6    X7
##    <fct>            <int> <int> <int> <int> <int> <int> <int> <int>
##  1 Coca                 1     4     3     5     3     3     3     4
##  2 Fanta                1     4     5     6     4     5     4     5
##  3 Sprite               1     7     6     6     6     7     6     5
##  4 Coca                 2     7     4     4     6     4     7     5
##  5 Fanta                2     4     5     7     3     4     3     7
##  6 Sprite               2     7     5     5     7     6     6     5
##  7 Coca                 3     5     2     2     6     1     6     2
##  8 Fanta                3     2     4     7     2     5     3     7
##  9 Sprite               3     5     7     6     5     7     5     6
## 10 Coca                 4     4     3     3     5     2     5     3
## # … with 38 more rows
…
Modelo de Segmentação: Inclusão dos Clusters

grupos = kmeans(refri[,3:9],3); grupo = as.factor(grupos$cluster)
matriz = dplyr::mutate(refri, cluster = grupo); matriz

## # A tibble: 48 x 10
##    MARCA  Cod_respondente    X1    X2    X3    X4    X5    X6    X7 cluster
##    <fct>            <int> <int> <int> <int> <int> <int> <int> <int> <fct>  
##  1 Coca                 1     4     3     5     3     3     3     4 3      
##  2 Fanta                1     4     5     6     4     5     4     5 3      
##  3 Sprite               1     7     6     6     6     7     6     5 2      
##  4 Coca                 2     7     4     4     6     4     7     5 2      
##  5 Fanta                2     4     5     7     3     4     3     7 3      
##  6 Sprite               2     7     5     5     7     6     6     5 2      
##  7 Coca                 3     5     2     2     6     1     6     2 1      
##  8 Fanta                3     2     4     7     2     5     3     7 3      
##  9 Sprite               3     5     7     6     5     7     5     6 2      
## 10 Coca                 4     4     3     3     5     2     5     3 1      
## # … with 38 more rows
…
